<?xml version="1.0" encoding="UTF-8" standalone="no"?>
<!-- Created with Inkscape (http://www.inkscape.org/) -->

<svg
   xmlns:dc="http://purl.org/dc/elements/1.1/"
   xmlns:cc="http://creativecommons.org/ns#"
   xmlns:rdf="http://www.w3.org/1999/02/22-rdf-syntax-ns#"
   xmlns:svg="http://www.w3.org/2000/svg"
   xmlns="http://www.w3.org/2000/svg"
   xmlns:sodipodi="http://sodipodi.sourceforge.net/DTD/sodipodi-0.dtd"
   xmlns:inkscape="http://www.inkscape.org/namespaces/inkscape"
   width="1000"
   height="430"
   viewBox="0 0 1000 430"
   id="svg2"
   version="1.1"
   inkscape:version="0.91 r13725"
   sodipodi:docname="HZA.svg">
  <defs
     id="defs4" />
  <sodipodi:namedview
     id="base"
     pagecolor="#ffffff"
     bordercolor="#666666"
     borderopacity="1.0"
     inkscape:pageopacity="0.0"
     inkscape:pageshadow="2"
     inkscape:zoom="1"
     inkscape:cx="156.93153"
     inkscape:cy="214.9196"
     inkscape:document-units="px"
     inkscape:current-layer="layer1"
     showgrid="false"
     inkscape:window-width="1920"
     inkscape:window-height="1018"
     inkscape:window-x="-8"
     inkscape:window-y="-8"
     inkscape:window-maximized="1"
     units="px" />
  <metadata
     id="metadata7">
    <rdf:RDF>
      <cc:Work
         rdf:about="">
        <dc:format>image/svg+xml</dc:format>
        <dc:type
           rdf:resource="http://purl.org/dc/dcmitype/StillImage" />
        <dc:title />
      </cc:Work>
    </rdf:RDF>
  </metadata>
  <g
     inkscape:label="Ebene 1"
     inkscape:groupmode="layer"
     id="layer1"
     transform="translate(0,-622.36216)">
    <rect
       style="opacity:1;fill:#ff0000;fill-opacity:1;fill-rule:nonzero"
       id="rect4159-2-7-2-4-8"
       width="104"
       height="6"
       x="-161"
       y="865.36224"
       transform="scale(-1,1)" />
    <rect
       style="opacity:1;fill:#ff0000;fill-opacity:1;fill-rule:nonzero"
       id="rect4159-2-7-2-5"
       width="104"
       height="6"
       x="-161"
       y="795.36224"
       transform="scale(-1,1)" />
    <rect
       style="opacity:1;fill:#0000ff;fill-opacity:1;fill-rule:nonzero"
       id="rect4159-2-7-2"
       width="97"
       height="6"
       x="-239"
       y="795.36218"
       transform="scale(-1,1)" />
    <rect
       style="opacity:1;fill:#ff0000;fill-opacity:1;fill-rule:nonzero;stroke:none;stroke-width:1;stroke-linecap:butt;stroke-linejoin:round;stroke-miterlimit:4;stroke-dasharray:none;stroke-opacity:1"
       id="rect4142"
       width="6"
       height="269"
       x="-578.66663"
       y="748.36224"
       transform="scale(-1,1)" />
    <rect
       style="opacity:1;fill:#0000ff;fill-opacity:1;fill-rule:nonzero;stroke:none;stroke-width:1;stroke-linecap:butt;stroke-linejoin:round;stroke-miterlimit:4;stroke-dasharray:none;stroke-opacity:1"
       id="rect4142-6"
       width="6"
       height="268"
       x="-486"
       y="744.36218"
       transform="scale(-1,1)" />
    <rect
       style="opacity:1;fill:#b3b3b3;fill-opacity:1;fill-rule:nonzero;stroke:#000000;stroke-width:1.00127172;stroke-linecap:butt;stroke-linejoin:round;stroke-miterlimit:4;stroke-dasharray:none;stroke-opacity:1"
       id="rect4136"
       width="173.99873"
       height="118.99873"
       x="-616.49933"
       y="629.86279"
       transform="scale(-1,1)" />
    <rect
       style="opacity:1;fill:#0000ff;fill-opacity:1;fill-rule:nonzero"
       id="rect4159"
       width="88"
       height="6"
       x="-572"
       y="923.36218"
       transform="scale(-1,1)" />
    <rect
       style="opacity:1;fill:#ff0000;fill-opacity:1;fill-rule:nonzero;stroke:none;stroke-width:1;stroke-linecap:butt;stroke-linejoin:round;stroke-miterlimit:4;stroke-dasharray:none;stroke-opacity:1"
       id="rect4142-3"
       width="6"
       height="267"
       x="-853"
       y="748.36224"
       transform="scale(-1,1)" />
    <rect
       style="opacity:1;fill:#0000ff;fill-opacity:1;fill-rule:nonzero;stroke:none;stroke-width:1;stroke-linecap:butt;stroke-linejoin:round;stroke-miterlimit:4;stroke-dasharray:none;stroke-opacity:1"
       id="rect4142-6-0"
       width="6"
       height="268"
       x="-760"
       y="744.36218"
       transform="scale(-1,1)" />
    <rect
       style="opacity:1;fill:#b3b3b3;fill-opacity:1;fill-rule:nonzero;stroke:#000000;stroke-width:1.00127172;stroke-linecap:butt;stroke-linejoin:round;stroke-miterlimit:4;stroke-dasharray:none;stroke-opacity:1"
       id="rect4136-6"
       width="173.99873"
       height="118.99873"
       x="-888.49939"
       y="629.86279"
       transform="scale(-1,1)" />
    <rect
       style="opacity:1;fill:#0000ff;fill-opacity:1;fill-rule:nonzero"
       id="rect4159-2"
       width="88"
       height="6"
       x="-847"
       y="923.36218"
       transform="scale(-1,1)" />
    <rect
       style="opacity:1;fill:#ff0000;fill-opacity:1;fill-rule:nonzero;stroke:none;stroke-width:1;stroke-linecap:butt;stroke-linejoin:round;stroke-miterlimit:4;stroke-dasharray:none;stroke-opacity:1"
       id="rect4142-3-0"
       width="6"
       height="269"
       x="-336.99997"
       y="748.36224"
       transform="scale(-1,1)" />
    <rect
       style="opacity:1;fill:#0000ff;fill-opacity:1;fill-rule:nonzero;stroke:none;stroke-width:1;stroke-linecap:butt;stroke-linejoin:round;stroke-miterlimit:4;stroke-dasharray:none;stroke-opacity:1"
       id="rect4142-6-0-5"
       width="6"
       height="268"
       x="-243.99997"
       y="744.36218"
       transform="scale(-1,1)" />
    <rect
       style="opacity:1;fill:#b3b3b3;fill-opacity:1;fill-rule:nonzero;stroke:#000000;stroke-width:1.00127172;stroke-linecap:butt;stroke-linejoin:round;stroke-miterlimit:4;stroke-dasharray:none;stroke-opacity:1"
       id="rect4136-6-8"
       width="173.99873"
       height="118.99873"
       x="-374.49936"
       y="629.86279"
       transform="scale(-1,1)" />
    <rect
       style="opacity:1;fill:#0000ff;fill-opacity:1;fill-rule:nonzero"
       id="rect4159-2-7"
       width="88"
       height="6"
       x="-330.99997"
       y="923.36218"
       transform="scale(-1,1)" />
    <rect
       style="opacity:1;fill:#0000ff;fill-opacity:1;fill-rule:nonzero"
       id="rect4159-2-7-2-4"
       width="97"
       height="6"
       x="-239"
       y="865.36224"
       transform="scale(-1,1)" />
    <rect
       style="opacity:1;fill:#999999;fill-opacity:1;fill-rule:nonzero;stroke:#000000;stroke-width:0.84287447;stroke-opacity:1"
       id="rect4265"
       width="51.157127"
       height="99.15712"
       x="-165.57855"
       y="784.78363"
       transform="scale(-1,1)" />
    <path
       style="fill:none;fill-rule:evenodd;stroke:#000000;stroke-width:0.99489808px;stroke-linecap:butt;stroke-linejoin:miter;stroke-opacity:1"
       d="m 165.17007,883.86394 -50.35894,-99.00416 0,0"
       id="path4284"
       inkscape:connector-curvature="0" />
    <rect
       style="opacity:1;fill:#ff0000;fill-opacity:1;fill-rule:nonzero;stroke:none;stroke-width:1;stroke-linecap:butt;stroke-linejoin:round;stroke-miterlimit:4;stroke-dasharray:none;stroke-opacity:1"
       id="rect4142-6-0-5-8"
       width="6"
       height="174"
       x="-59.999977"
       y="749.36224"
       transform="scale(-1,1)" />
    <rect
       style="opacity:1;fill:#b3b3b3;fill-opacity:1;fill-rule:nonzero;stroke:none;stroke-opacity:1"
       id="rect4154-8"
       width="46"
       height="26"
       x="-107.00003"
       y="785.61218"
       transform="scale(-1,1)" />
    <path
       style="color:#000000;font-style:normal;font-variant:normal;font-weight:normal;font-stretch:normal;font-size:medium;line-height:normal;font-family:sans-serif;text-indent:0;text-align:start;text-decoration:none;text-decoration-line:none;text-decoration-style:solid;text-decoration-color:#000000;letter-spacing:normal;word-spacing:normal;text-transform:none;direction:ltr;block-progression:tb;writing-mode:lr-tb;baseline-shift:baseline;text-anchor:start;white-space:normal;clip-rule:nonzero;display:inline;overflow:visible;visibility:visible;opacity:1;isolation:auto;mix-blend-mode:normal;color-interpolation:sRGB;color-interpolation-filters:linearRGB;solid-color:#000000;solid-opacity:1;fill:#000000;fill-opacity:1;fill-rule:nonzero;stroke:none;stroke-width:1;stroke-linecap:butt;stroke-linejoin:miter;stroke-miterlimit:4;stroke-dasharray:none;stroke-dashoffset:0;stroke-opacity:1;color-rendering:auto;image-rendering:auto;shape-rendering:auto;text-rendering:auto;enable-background:accumulate"
       d="m 106.99998,785.36217 0,0.5 0,25.5 -45.999965,0 0,-26 z m -1.01658,1 -20.83977,12 -23.127035,12 43.966805,0 z"
       id="rect4286-0"
       inkscape:connector-curvature="0"
       sodipodi:nodetypes="ccccccccccc" />
    <rect
       style="opacity:1;fill:#ff0000;fill-opacity:1;fill-rule:nonzero"
       id="rect4159-2-7-2-4-8-7"
       width="1000"
       height="6"
       x="-1000"
       y="1014.3622"
       transform="scale(-1,1)" />
    <rect
       style="opacity:1;fill:#0000ff;fill-opacity:1;fill-rule:nonzero"
       id="rect4159-2-7-4"
       width="1000"
       height="6"
       x="-1000"
       y="1036.3622"
       transform="scale(-1,1)" />
    <rect
       style="opacity:1;fill:#0000ff;fill-opacity:1;fill-rule:nonzero;stroke:none;stroke-opacity:1"
       id="rect4210"
       width="6"
       height="16"
       x="238"
       y="1022.3622" />
    <rect
       style="opacity:1;fill:#0000ff;fill-opacity:1;fill-rule:nonzero;stroke:none;stroke-opacity:1"
       id="rect4210-8"
       width="6"
       height="16"
       x="480"
       y="1022.3622" />
    <rect
       style="opacity:1;fill:#0000ff;fill-opacity:1;fill-rule:nonzero;stroke:none;stroke-opacity:1"
       id="rect4210-8-9"
       width="6"
       height="16"
       x="754"
       y="1022.3622" />
    <rect
       style="opacity:1;fill:#ff0000;fill-opacity:1;fill-rule:nonzero;stroke:none;stroke-width:1;stroke-linecap:butt;stroke-linejoin:round;stroke-miterlimit:4;stroke-dasharray:none;stroke-opacity:1"
       id="rect4142-3-0-7"
       width="6"
       height="25"
       x="-719"
       y="992.36218"
       transform="scale(-1,1)" />
    <rect
       style="opacity:1;fill:#0000ff;fill-opacity:1;fill-rule:nonzero;stroke:none;stroke-width:1;stroke-linecap:butt;stroke-linejoin:round;stroke-miterlimit:4;stroke-dasharray:none;stroke-opacity:1"
       id="rect4142-6-0-5-7"
       width="6"
       height="20"
       x="-626"
       y="992.36218"
       transform="scale(-1,1)" />
    <rect
       style="opacity:1;fill:#0000ff;fill-opacity:1;fill-rule:nonzero;stroke:none;stroke-opacity:1"
       id="rect4210-7"
       width="6"
       height="16"
       x="620"
       y="1022.3622" />
    <path
       sodipodi:type="star"
       style="opacity:1;fill:#ff0000;fill-opacity:1;fill-rule:nonzero;stroke:none;stroke-opacity:1"
       id="path4166"
       sodipodi:sides="3"
       sodipodi:cx="57"
       sodipodi:cy="933.36218"
       sodipodi:r1="8.0622578"
       sodipodi:r2="4.0311289"
       sodipodi:arg1="0.51914611"
       sodipodi:arg2="1.5663437"
       inkscape:flatsided="false"
       inkscape:rounded="0"
       inkscape:randomized="0"
       d="m 64,937.36218 -6.982051,0.0311 -6.982051,0.0311 L 53.5,931.36218 56.964102,925.3 l 3.517949,6.03109 z"
       inkscape:transform-center-x="-0.017949192"
       inkscape:transform-center-y="-2" />
  </g>
</svg>
