<?xml version="1.0" encoding="utf-8"?>
<!-- Generator: Adobe Illustrator 16.0.0, SVG Export Plug-In . SVG Version: 6.00 Build 0)  -->
<!DOCTYPE svg PUBLIC "-//W3C//DTD SVG 1.1//EN" "http://www.w3.org/Graphics/SVG/1.1/DTD/svg11.dtd">
<svg version="1.1" id="Ebene_1" xmlns="http://www.w3.org/2000/svg" xmlns:xlink="http://www.w3.org/1999/xlink" x="0px" y="0px"
	 width="1850px" height="690px" viewBox="0 0 1850 690" enable-background="new 0 0 1850 690" xml:space="preserve">
<rect x="1519.5" y="8.5" fill="#00AAE3" stroke="#000000" stroke-miterlimit="10" width="319" height="610"/>
<rect x="557" y="27" fill="#FFFF00" width="1002" height="10"/>
<rect x="557" y="27" fill="#FFFF00" width="10" height="573"/>
<rect x="921" y="239" fill="#FF0000" width="638" height="10"/>
<polygon fill="#FF0000" points="1584,253.5 1584,249 1569,249 1569,243.5 1569,238 1584,238 1584,233.5 1594,243.5 "/>
<polygon fill="#FFFF00" points="1579,22.5 1579,27 1594,27 1594,32.5 1594,38 1579,38 1579,42.5 1569,32.5 "/>
<polygon fill="#00FF00" points="252,253.5 252,249 238,249 238,243.5 238,238 252,238 252,233.5 262,243.5 "/>
<rect x="1219.5" y="207.5" fill="#9D9D9C" stroke="#1D1D1B" stroke-miterlimit="10" width="40" height="75"/>
<line fill="none" stroke="#1D1D1B" stroke-miterlimit="10" x1="1220" y1="282.502" x2="1260" y2="207.501"/>
<line fill="none" stroke="#FF0000" stroke-width="6" stroke-miterlimit="10" x1="1226" y1="283" x2="1226" y2="404"/>
<line fill="none" stroke="#0000FF" stroke-width="6" stroke-miterlimit="10" x1="1253" y1="283" x2="1253" y2="404"/>
<rect x="1037.5" y="208.5" fill="#9D9D9C" stroke="#1D1D1B" stroke-miterlimit="10" width="40" height="75"/>
<line fill="none" stroke="#1D1D1B" stroke-linejoin="round" stroke-miterlimit="10" x1="1037.5" y1="208.546" x2="1077.5" y2="245"/>
<line fill="none" stroke="#1D1D1B" stroke-miterlimit="10" x1="1037.5" y1="283.168" x2="1077.5" y2="245"/>
<line fill="none" stroke="#1D1D1B" stroke-miterlimit="10" x1="1026" y1="186.5" x2="1089" y2="186.5"/>
<line fill="none" stroke="#1D1D1B" stroke-linejoin="round" stroke-miterlimit="10" x1="1026.5" y1="187" x2="1026.5" y2="239"/>
<line fill="none" stroke="#1D1D1B" stroke-linecap="square" stroke-miterlimit="10" x1="1088.5" y1="187" x2="1088.5" y2="239"/>
<line fill="none" stroke="#000000" stroke-miterlimit="10" x1="1519" y1="209.5" x2="1838" y2="209.5"/>
<rect x="557" y="590" fill="#FFFF00" width="1002" height="10"/>
<polygon fill="#FFFF00" points="1579,584.5 1579,589 1594,589 1594,594.5 1594,600 1579,600 1579,604.5 1569,594.5 "/>
<linearGradient id="SVGID_1_" gradientUnits="userSpaceOnUse" x1="1229" y1="352" x2="1250" y2="352">
	<stop  offset="0" style="stop-color:#FF0000"/>
	<stop  offset="1" style="stop-color:#0000FF"/>
</linearGradient>
<rect x="1229" y="349" fill="url(#SVGID_1_)" width="21" height="6"/>
<linearGradient id="SVGID_2_" gradientUnits="userSpaceOnUse" x1="272" y1="244" x2="921" y2="244">
	<stop  offset="0.1823" style="stop-color:#00FF00"/>
	<stop  offset="0.3453" style="stop-color:#84FF00"/>
	<stop  offset="0.5025" style="stop-color:#FFFF00"/>
</linearGradient>
<rect x="272" y="239" fill="url(#SVGID_2_)" width="649" height="10"/>
</svg>
