<?xml version="1.0" encoding="UTF-8" standalone="no"?>
<!-- Generator: Adobe Illustrator 16.0.0, SVG Export Plug-In . SVG Version: 6.00 Build 0)  -->

<svg
   xmlns:dc="http://purl.org/dc/elements/1.1/"
   xmlns:cc="http://creativecommons.org/ns#"
   xmlns:rdf="http://www.w3.org/1999/02/22-rdf-syntax-ns#"
   xmlns:svg="http://www.w3.org/2000/svg"
   xmlns="http://www.w3.org/2000/svg"
   xmlns:sodipodi="http://sodipodi.sourceforge.net/DTD/sodipodi-0.dtd"
   xmlns:inkscape="http://www.inkscape.org/namespaces/inkscape"
   version="1.1"
   id="Ebene_1"
   x="0px"
   y="0px"
   width="1850px"
   height="690px"
   viewBox="0 0 1850 690"
   enable-background="new 0 0 1850 690"
   xml:space="preserve"
   sodipodi:docname="LUE_Anexbau.svg"
   inkscape:version="0.92.1 r15371"><metadata
     id="metadata159"><rdf:RDF><cc:Work
         rdf:about=""><dc:format>image/svg+xml</dc:format><dc:type
           rdf:resource="http://purl.org/dc/dcmitype/StillImage" /></cc:Work></rdf:RDF></metadata><defs
     id="defs157" /><sodipodi:namedview
     pagecolor="#ffffff"
     bordercolor="#666666"
     borderopacity="1"
     objecttolerance="10"
     gridtolerance="10"
     guidetolerance="10"
     inkscape:pageopacity="0"
     inkscape:pageshadow="2"
     inkscape:window-width="1920"
     inkscape:window-height="1058"
     id="namedview155"
     showgrid="false"
     inkscape:zoom="1.587027"
     inkscape:cx="1541.7273"
     inkscape:cy="150.65687"
     inkscape:window-x="-8"
     inkscape:window-y="-8"
     inkscape:window-maximized="1"
     inkscape:current-layer="Ebene_1" /><rect
     x="126"
     y="207"
     fill="#0000FF"
     width="395"
     height="10"
     id="rect2" /><rect
     x="126"
     y="389"
     fill="#00FF00"
     width="395"
     height="10"
     id="rect4" /><rect
     x="560"
     y="207"
     fill="#FFFF00"
     width="1110"
     height="10"
     id="rect6" /><rect
     x="561"
     y="389"
     fill="#FF0000"
     width="1109"
     height="10"
     id="rect8" /><rect
     x="1289"
     y="30"
     fill="#FFFF00"
     width="10"
     height="187"
     id="rect10" /><rect
     x="1289"
     y="389"
     fill="#FF0000"
     width="10"
     height="187"
     id="rect12" /><rect
     x="1299"
     y="566"
     fill="#FF0000"
     width="371"
     height="10"
     id="rect14" /><rect
     x="1299"
     y="478"
     fill="#FF0000"
     width="371"
     height="10"
     id="rect16" /><rect
     x="1299"
     y="30"
     fill="#FFFF00"
     width="371"
     height="10"
     id="rect18" /><rect
     x="1299"
     y="118"
     fill="#FFFF00"
     width="371"
     height="10"
     id="rect20" /><path
     fill="#FFFF00"
     d="M1707,40h-15V30h15V40z M1692,44V26l-12,9"
     id="path22" /><path
     fill="#FFFF00"
     d="M1707,129h-15v-10h15V129z M1692,133v-18l-12,9"
     id="path24" /><path
     fill="#FFFF00"
     d="M1707,217h-15v-10h15V217z M1692,221v-18l-12,9"
     id="path26" /><path
     d="m 1680,399 h 15 v -10 h -15 z m 15,4 v -18 l 12,9"
     id="path28"
     inkscape:connector-curvature="0"
     style="fill:#ff0000" /><path
     d="m 1680,488 h 15 v -10 h -15 z m 15,4 v -18 l 12,9"
     id="path30"
     inkscape:connector-curvature="0"
     style="fill:#ff0000" /><path
     d="m 1680,576 h 15 v -10 h -15 z m 15,4 v -18 l 12,9"
     id="path32"
     inkscape:connector-curvature="0"
     style="fill:#ff0000" /><path
     fill="#00FF00"
     d="M89,389h15v10H89V389z M104,385v18l12-9"
     id="path34" /><path
     fill="#0000FF"
     d="M89,207h15v10H89V207z M104,203v18l12-9"
     id="path36" /><rect
     x="682.5"
     y="357.5"
     fill="#9D9D9C"
     stroke="#1D1D1B"
     stroke-miterlimit="10"
     width="40"
     height="75"
     id="rect38" /><line
     fill="none"
     stroke="#1D1D1B"
     stroke-miterlimit="10"
     x1="683"
     y1="432.502"
     x2="723"
     y2="357.501"
     id="line40" /><line
     fill="none"
     stroke="#FF0000"
     stroke-width="7"
     stroke-miterlimit="10"
     x1="688.5"
     y1="433"
     x2="688.5"
     y2="576"
     id="line42" /><line
     fill="none"
     stroke="#0000FF"
     stroke-width="7"
     stroke-miterlimit="10"
     x1="715.5"
     y1="433"
     x2="715.5"
     y2="576"
     id="line44" /><linearGradient
     id="SVGID_1_"
     gradientUnits="userSpaceOnUse"
     x1="692"
     y1="502"
     x2="713"
     y2="502"><stop
       offset="0"
       style="stop-color:#FF0000"
       id="stop46" /><stop
       offset="1"
       style="stop-color:#0000FF"
       id="stop48" /></linearGradient><rect
     x="692"
     y="499"
     fill="url(#SVGID_1_)"
     width="21"
     height="6"
     id="rect51" /><rect
     x="1091.5"
     y="357.5"
     fill="#9D9D9C"
     stroke="#1D1D1B"
     stroke-miterlimit="10"
     width="40"
     height="75"
     id="rect53" /><line
     fill="none"
     stroke="#1D1D1B"
     stroke-linejoin="round"
     stroke-miterlimit="10"
     x1="1091.5"
     y1="357.546"
     x2="1131.5"
     y2="394"
     id="line55" /><line
     fill="none"
     stroke="#1D1D1B"
     stroke-miterlimit="10"
     x1="1091.5"
     y1="432.168"
     x2="1131.5"
     y2="394"
     id="line57" /><line
     fill="none"
     stroke="#1D1D1B"
     stroke-miterlimit="10"
     x1="1080"
     y1="336.5"
     x2="1143"
     y2="336.5"
     id="line59" /><line
     fill="none"
     stroke="#1D1D1B"
     stroke-miterlimit="10"
     x1="1080.5"
     y1="337"
     x2="1080.5"
     y2="389"
     id="line61" /><line
     fill="none"
     stroke="#1D1D1B"
     stroke-miterlimit="10"
     x1="1142.5"
     y1="337"
     x2="1142.5"
     y2="389"
     id="line63" /><g
     id="g128"><linearGradient
       id="SVGID_2_"
       gradientUnits="userSpaceOnUse"
       x1="540.5"
       y1="428.5"
       x2="540.5"
       y2="177.5005"><stop
         offset="0"
         style="stop-color:#6E6E6E"
         id="stop65" /><stop
         offset="0.5"
         style="stop-color:#E6E6E6"
         id="stop67" /><stop
         offset="1"
         style="stop-color:#6E6E6E"
         id="stop69" /></linearGradient><rect
       x="520.5"
       y="177.5"
       fill="url(#SVGID_2_)"
       stroke="#000000"
       stroke-miterlimit="10"
       width="40"
       height="251"
       id="rect72" /><line
       fill="none"
       stroke="#000000"
       stroke-miterlimit="10"
       x1="520"
       y1="186.5"
       x2="560"
       y2="186.5"
       id="line74" /><line
       fill="none"
       stroke="#000000"
       stroke-miterlimit="10"
       x1="520"
       y1="195.5"
       x2="560"
       y2="195.5"
       id="line76" /><line
       fill="none"
       stroke="#000000"
       stroke-miterlimit="10"
       x1="520"
       y1="204.5"
       x2="560"
       y2="204.5"
       id="line78" /><line
       fill="none"
       stroke="#000000"
       stroke-miterlimit="10"
       x1="520"
       y1="213.5"
       x2="560"
       y2="213.5"
       id="line80" /><line
       fill="none"
       stroke="#000000"
       stroke-miterlimit="10"
       x1="521"
       y1="222.5"
       x2="561"
       y2="222.5"
       id="line82" /><line
       fill="none"
       stroke="#000000"
       stroke-miterlimit="10"
       x1="521"
       y1="231.5"
       x2="561"
       y2="231.5"
       id="line84" /><line
       fill="none"
       stroke="#000000"
       stroke-miterlimit="10"
       x1="521"
       y1="240.5"
       x2="561"
       y2="240.5"
       id="line86" /><line
       fill="none"
       stroke="#000000"
       stroke-miterlimit="10"
       x1="521"
       y1="249.5"
       x2="561"
       y2="249.5"
       id="line88" /><line
       fill="none"
       stroke="#000000"
       stroke-miterlimit="10"
       x1="521"
       y1="258.5"
       x2="561"
       y2="258.5"
       id="line90" /><line
       fill="none"
       stroke="#000000"
       stroke-miterlimit="10"
       x1="521"
       y1="267.5"
       x2="561"
       y2="267.5"
       id="line92" /><line
       fill="none"
       stroke="#000000"
       stroke-miterlimit="10"
       x1="521"
       y1="276.5"
       x2="561"
       y2="276.5"
       id="line94" /><line
       fill="none"
       stroke="#000000"
       stroke-miterlimit="10"
       x1="521"
       y1="285.5"
       x2="561"
       y2="285.5"
       id="line96" /><line
       fill="none"
       stroke="#000000"
       stroke-miterlimit="10"
       x1="521"
       y1="294.5"
       x2="561"
       y2="294.5"
       id="line98" /><line
       fill="none"
       stroke="#000000"
       stroke-miterlimit="10"
       x1="521"
       y1="303.5"
       x2="561"
       y2="303.5"
       id="line100" /><line
       fill="none"
       stroke="#000000"
       stroke-miterlimit="10"
       x1="521"
       y1="312.5"
       x2="561"
       y2="312.5"
       id="line102" /><line
       fill="none"
       stroke="#000000"
       stroke-miterlimit="10"
       x1="521"
       y1="321.5"
       x2="561"
       y2="321.5"
       id="line104" /><line
       fill="none"
       stroke="#000000"
       stroke-miterlimit="10"
       x1="521"
       y1="401.5"
       x2="561"
       y2="401.5"
       id="line106" /><line
       fill="none"
       stroke="#000000"
       stroke-miterlimit="10"
       x1="521"
       y1="410.5"
       x2="561"
       y2="410.5"
       id="line108" /><line
       fill="none"
       stroke="#000000"
       stroke-miterlimit="10"
       x1="521"
       y1="419.5"
       x2="561"
       y2="419.5"
       id="line110" /><line
       fill="none"
       stroke="#000000"
       stroke-miterlimit="10"
       x1="521"
       y1="330.5"
       x2="561"
       y2="330.5"
       id="line112" /><line
       fill="none"
       stroke="#000000"
       stroke-miterlimit="10"
       x1="521"
       y1="339.5"
       x2="561"
       y2="339.5"
       id="line114" /><line
       fill="none"
       stroke="#000000"
       stroke-miterlimit="10"
       x1="521"
       y1="348.5"
       x2="561"
       y2="348.5"
       id="line116" /><line
       fill="none"
       stroke="#000000"
       stroke-miterlimit="10"
       x1="521"
       y1="357.5"
       x2="561"
       y2="357.5"
       id="line118" /><line
       fill="none"
       stroke="#000000"
       stroke-miterlimit="10"
       x1="521"
       y1="366.5"
       x2="561"
       y2="366.5"
       id="line120" /><line
       fill="none"
       stroke="#000000"
       stroke-miterlimit="10"
       x1="521"
       y1="375.5"
       x2="561"
       y2="375.5"
       id="line122" /><line
       fill="none"
       stroke="#000000"
       stroke-miterlimit="10"
       x1="521"
       y1="384.5"
       x2="561"
       y2="384.5"
       id="line124" /><line
       fill="none"
       stroke="#000000"
       stroke-miterlimit="10"
       x1="521"
       y1="393.5"
       x2="561"
       y2="393.5"
       id="line126" /></g><rect
     x="1091.5"
     y="176.5"
     fill="#9D9D9C"
     stroke="#1D1D1B"
     stroke-miterlimit="10"
     width="40"
     height="75"
     id="rect130" /><line
     fill="none"
     stroke="#1D1D1B"
     stroke-linejoin="round"
     stroke-miterlimit="10"
     x1="1131.5"
     y1="176.546"
     x2="1091.5"
     y2="213"
     id="line132" /><line
     fill="none"
     stroke="#1D1D1B"
     stroke-miterlimit="10"
     x1="1131.5"
     y1="251.168"
     x2="1091.5"
     y2="213"
     id="line134" /><line
     fill="none"
     stroke="#1D1D1B"
     stroke-miterlimit="10"
     x1="1143"
     y1="154.5"
     x2="1080"
     y2="154.5"
     id="line136" /><line
     fill="none"
     stroke="#1D1D1B"
     stroke-linejoin="round"
     stroke-miterlimit="10"
     x1="1142.5"
     y1="155"
     x2="1142.5"
     y2="207"
     id="line138" /><line
     fill="none"
     stroke="#1D1D1B"
     stroke-miterlimit="10"
     x1="1080.5"
     y1="155"
     x2="1080.5"
     y2="207"
     id="line140" /><line
     fill="none"
     stroke="#1D1D1B"
     stroke-miterlimit="10"
     x1="786"
     y1="154.5"
     x2="723"
     y2="154.5"
     id="line142" /><line
     fill="none"
     stroke="#1D1D1B"
     stroke-linejoin="round"
     stroke-miterlimit="10"
     x1="785.5"
     y1="155"
     x2="785.5"
     y2="207"
     id="line144" /><line
     fill="none"
     stroke="#1D1D1B"
     stroke-miterlimit="10"
     x1="723.5"
     y1="155"
     x2="723.5"
     y2="207"
     id="line146" /><line
     fill="none"
     stroke="#1D1D1B"
     stroke-miterlimit="10"
     x1="382"
     y1="336.5"
     x2="319"
     y2="336.5"
     id="line148" /><line
     fill="none"
     stroke="#1D1D1B"
     stroke-linejoin="round"
     stroke-miterlimit="10"
     x1="381.5"
     y1="337"
     x2="381.5"
     y2="389"
     id="line150" /><line
     fill="none"
     stroke="#1D1D1B"
     stroke-miterlimit="10"
     x1="319.5"
     y1="337"
     x2="319.5"
     y2="389"
     id="line152" /></svg>