<svg version="1.1" id="Ebene_1" xmlns="http://www.w3.org/2000/svg" xmlns:xlink="http://www.w3.org/1999/xlink" x="0px" y="0px"
	 width="24px" height="24px" viewBox="0 0 24 24" enable-background="new 0 0 24 24" xml:space="preserve">
<polygon fill="#ffcb00" stroke="#ffcb00" stroke-miterlimit="10" points="22,12 12,22 12,17 2,17 2,7 12,7 12,2 "/>
</svg>
