<?xml version="1.0" encoding="utf-8"?>
<!-- Generator: Adobe Illustrator 16.0.0, SVG Export Plug-In . SVG Version: 6.00 Build 0)  -->
<!DOCTYPE svg PUBLIC "-//W3C//DTD SVG 1.1//EN" "http://www.w3.org/Graphics/SVG/1.1/DTD/svg11.dtd">
<svg version="1.1" id="Ebene_1" xmlns="http://www.w3.org/2000/svg" xmlns:xlink="http://www.w3.org/1999/xlink" x="0px" y="0px"
	 width="1850px" height="690px" viewBox="0 0 1850 690" enable-background="new 0 0 1850 690" xml:space="preserve">
<rect x="1519.5" y="8.5" fill="#00AAE3" stroke="#000000" stroke-miterlimit="10" width="319" height="610"/>
<rect x="567" y="129" fill="#FFFF00" width="1002" height="10"/>
<rect x="567" y="129" fill="#FFFF00" width="10" height="365"/>
<rect x="931" y="488" fill="#FF0000" width="638" height="10"/>
<rect x="292" y="488" fill="#00FF00" width="639" height="10"/>
<polygon fill="#FF0000" points="1594,502.5 1594,498 1579,498 1579,492.5 1579,487 1594,487 1594,482.5 1604,492.5 "/>
<polygon fill="#FFFF00" points="1585,123.5 1585,128 1600,128 1600,133.5 1600,139 1585,139 1585,143.5 1575,133.5 "/>
<polygon fill="#00FF00" points="272,502.5 272,498 258,498 258,492.5 258,487 272,487 272,482.5 282,492.5 "/>
<rect x="1229.5" y="456.5" fill="#9D9D9C" stroke="#1D1D1B" stroke-miterlimit="10" width="40" height="75"/>
<line fill="none" stroke="#1D1D1B" stroke-miterlimit="10" x1="1230" y1="531.502" x2="1270" y2="456.501"/>
<line fill="none" stroke="#FF0000" stroke-width="6" stroke-miterlimit="10" x1="1236" y1="532" x2="1236" y2="616"/>
<line fill="none" stroke="#0000FF" stroke-width="6" stroke-miterlimit="10" x1="1263" y1="532" x2="1263" y2="616"/>
<rect x="1047.5" y="457.5" fill="#9D9D9C" stroke="#1D1D1B" stroke-miterlimit="10" width="40" height="75"/>
<line fill="none" stroke="#1D1D1B" stroke-linejoin="round" stroke-miterlimit="10" x1="1047.5" y1="457.546" x2="1087.5" y2="494"/>
<line fill="none" stroke="#1D1D1B" stroke-miterlimit="10" x1="1047.5" y1="532.168" x2="1087.5" y2="494"/>
<line fill="none" stroke="#1D1D1B" stroke-miterlimit="10" x1="1036" y1="435.5" x2="1099" y2="435.5"/>
<line fill="none" stroke="#1D1D1B" stroke-linejoin="round" stroke-miterlimit="10" x1="1036.5" y1="436" x2="1036.5" y2="488"/>
<line fill="none" stroke="#1D1D1B" stroke-linecap="square" stroke-miterlimit="10" x1="1098.5" y1="436" x2="1098.5" y2="488"/>
</svg>
