<?xml version="1.0" encoding="utf-8"?>
<!-- Generator: Adobe Illustrator 16.0.0, SVG Export Plug-In . SVG Version: 6.00 Build 0)  -->
<!DOCTYPE svg PUBLIC "-//W3C//DTD SVG 1.1//EN" "http://www.w3.org/Graphics/SVG/1.1/DTD/svg11.dtd">
<svg version="1.1" id="Ebene_1" xmlns="http://www.w3.org/2000/svg" xmlns:xlink="http://www.w3.org/1999/xlink" x="0px" y="0px"
	 width="1850px" height="690px" viewBox="0 0 1850 690" enable-background="new 0 0 1850 690" xml:space="preserve">
<rect x="33.5" y="227.5" fill="#29ABE2" stroke="#000000" stroke-miterlimit="10" width="1079" height="433"/>
<rect x="713" y="104" fill="#FFFF00" width="10" height="163"/>
<rect x="423" y="104" fill="#FFFF00" width="10" height="163"/>
<rect x="1003" y="104" fill="#FFFF00" width="10" height="163"/>
<rect x="133" y="104" fill="#FFFF00" width="10" height="163"/>
<rect x="1072" y="318" fill="#FF0000" width="325" height="10"/>
<rect x="1072" y="561" fill="#FF0000" width="325" height="10"/>
<rect x="1072" y="439" fill="#FF0000" width="325" height="10"/>
<polygon fill="#FFFF00" points="148,287 142.5,287 142.5,301 138,301 132.5,301 132.5,287 128,287 138,277 "/>
<polygon fill="#FFFF00" points="148,80 142.5,80 142.5,94 138,94 132.5,94 132.5,80 128,80 138,70 "/>
<polygon fill="#FFFF00" points="438,287 432.5,287 432.5,301 428,301 422.5,301 422.5,287 418,287 428,277 "/>
<polygon fill="#FFFF00" points="728,287 722.5,287 722.5,301 718,301 712.5,301 712.5,287 708,287 718,277 "/>
<polygon fill="#FFFF00" points="1018,287 1012.5,287 1012.5,301 1008,301 1002.5,301 1002.5,287 998,287 1008,277 "/>
<polygon fill="#FFFF00" points="438,80 432.5,80 432.5,94 428,94 422.5,94 422.5,80 418,80 428,70 "/>
<polygon fill="#FFFF00" points="728,80 722.5,80 722.5,94 718,94 712.5,94 712.5,80 708,80 718,70 "/>
<polygon fill="#FFFF00" points="1018,80 1012.5,80 1012.5,94 1008,94 1002.5,94 1002.5,80 998,80 1008,70 "/>
<polygon fill="#FF0000" points="1048,313 1048,318.5 1062,318.5 1062,323 1062,328.5 1048,328.5 1048,333 1038,323 "/>
<polygon fill="#FF0000" points="1048,434 1048,439.5 1062,439.5 1062,444 1062,449.5 1048,449.5 1048,454 1038,444 "/>
<polygon fill="#FF0000" points="1048,556 1048,561.5 1062,561.5 1062,566 1062,571.5 1048,571.5 1048,576 1038,566 "/>
<polygon fill="#FF0000" points="1417,313 1417,318.5 1431,318.5 1431,323 1431,328.5 1417,328.5 1417,333 1407,323 "/>
<polygon fill="#FF0000" points="1417,434 1417,439.5 1431,439.5 1431,444 1431,449.5 1417,449.5 1417,454 1407,444 "/>
<polygon fill="#FF0000" points="1417,556 1417,561.5 1431,561.5 1431,566 1431,571.5 1417,571.5 1417,576 1407,566 "/>
<rect x="1151.5" y="285.5" fill="#9D9D9C" stroke="#1D1D1B" stroke-miterlimit="10" width="40" height="75"/>
<line fill="none" stroke="#1D1D1B" stroke-miterlimit="10" x1="1151.5" y1="322.5" x2="1191.5" y2="285"/>
<line fill="none" stroke="#1D1D1B" stroke-miterlimit="10" x1="1151.5" y1="322.5" x2="1191.5" y2="360"/>
<line fill="none" stroke="#1D1D1B" stroke-miterlimit="10" x1="1140" y1="265.5" x2="1203" y2="265.5"/>
<line fill="none" stroke="#1D1D1B" stroke-linejoin="round" stroke-miterlimit="10" x1="1140.5" y1="266" x2="1140.5" y2="318"/>
<line fill="none" stroke="#1D1D1B" stroke-linecap="square" stroke-miterlimit="10" x1="1202.5" y1="266" x2="1202.5" y2="318"/>
<line fill="none" stroke="#1D1D1B" stroke-miterlimit="10" x1="1140" y1="386.5" x2="1203" y2="386.5"/>
<line fill="none" stroke="#1D1D1B" stroke-linejoin="round" stroke-miterlimit="10" x1="1140.5" y1="387" x2="1140.5" y2="439"/>
<line fill="none" stroke="#1D1D1B" stroke-linecap="square" stroke-miterlimit="10" x1="1202.5" y1="387" x2="1202.5" y2="439"/>
<line fill="none" stroke="#1D1D1B" stroke-miterlimit="10" x1="1140" y1="508.5" x2="1203" y2="508.5"/>
<line fill="none" stroke="#1D1D1B" stroke-linejoin="round" stroke-miterlimit="10" x1="1140.5" y1="509" x2="1140.5" y2="561"/>
<line fill="none" stroke="#1D1D1B" stroke-linecap="square" stroke-miterlimit="10" x1="1202.5" y1="509" x2="1202.5" y2="561"/>
<rect x="1151.5" y="406.5" fill="#9D9D9C" stroke="#1D1D1B" stroke-miterlimit="10" width="40" height="75"/>
<line fill="none" stroke="#1D1D1B" stroke-miterlimit="10" x1="1151.5" y1="443.5" x2="1191.5" y2="406"/>
<line fill="none" stroke="#1D1D1B" stroke-miterlimit="10" x1="1151.5" y1="443.5" x2="1191.5" y2="481"/>
<rect x="1151.5" y="528.5" fill="#9D9D9C" stroke="#1D1D1B" stroke-miterlimit="10" width="40" height="75"/>
<line fill="none" stroke="#1D1D1B" stroke-miterlimit="10" x1="1151.5" y1="565.5" x2="1191.5" y2="528"/>
<line fill="none" stroke="#1D1D1B" stroke-miterlimit="10" x1="1151.5" y1="565.5" x2="1191.5" y2="603"/>
</svg>
